{
  "product_catalog": [
    {
      "product": {
        "name": "str",
        "manufacturer": "Literal",
        "certificates": [ "str" ],
        "images": [
          {
            "image": "bytes"
          }
        ],
        "aliases": [ "str" ],
        "modifications": [
          {
            "name": "str",
            "equipment": [ "str" ],
            "implementations": [
              {
                "object_name": "str",
                "employer": "str"
              }
            ],
            "deliveries": [
              {
                "delivery_number": "str",
                "customer": "str",
                "delivery_date": "date"
              }
            ],
            "acts": [
              {
                "number": "str",
                "customer": "str"
              }
            ],
            "documents": [
              {
                "name": "str",
                "link": "str"
              }
            ]
          }
        ]
      }
    }
  ]
}
