footer_1 even
10433

<w:tblGrid>
  <w:gridCol w:w="563"/>
  <w:gridCol w:w="6187"/>
  <w:gridCol w:w="510"/>
  <w:gridCol w:w="566"/>
  <w:gridCol w:w="1299"/>
  <w:gridCol w:w="849"/>
  <w:gridCol w:w="566"/>
</w:tblGrid>
w:hRule="exact" w:val="284"


footer_2 default 
"0"

<w:tblGrid>
  <w:gridCol w:w="284"/>
  <w:gridCol w:w="397"/>
</w:tblGrid>

<w:tcPr>
<w:tcW w:w="284" w:type="dxa"/>
<w:textDirection w:val="btLr"/>
<w:vAlign w:val="center"/>
</w:tcPr>

w:hRule="exact" w:val="1985"
w:hRule="exact" w:val="1418"
w:hRule="exact" w:val="1418
w:hRule="exact" w:val="1985"
w:hRule="exact" w:val="1418"

Подпись и дата / Инв. № / Взам. инв. № / Подпись и дата Инв. № подп.

10490

<w:tblGrid>
  <w:gridCol w:w="1497"/>
  <w:gridCol w:w="1498"/>
  <w:gridCol w:w="1499"/>
  <w:gridCol w:w="1499"/>
  <w:gridCol w:w="1499"/>
  <w:gridCol w:w="1499"/>
  <w:gridCol w:w="1499"/>
</w:tblGrid>

w:hRule="exact" w:val="284"


10490

Стр. / DOCPROPERTY DecimalNum \* MERGEFORMAT = ПДРА.465684.020 DOCPROPERTY DocTypeShort \* MERGEFORMAT = РЭ / PAGE \* MERGEFORMAT = 1 / Лист / № докум. / Подп. / Дата

<w:tblGrid>
  <w:gridCol w:w="563"/>
  <w:gridCol w:w="5948"/>
  <w:gridCol w:w="460"/>
  <w:gridCol w:w="566"/>
  <w:gridCol w:w="1299"/>
  <w:gridCol w:w="849"/>
  <w:gridCol w:w="566"/>
</w:tblGrid>

<w:trHeight w:hRule="exact" w:val="284"/>


footer_3 first
"0"

Подпись и дата / Инв. № дубл / Взам. инв. № / Подпись и дата / Инв. № подл

<w:tblGrid>
    <w:gridCol w:w="284"/>
    <w:gridCol w:w="397"/>
</w:tblGrid>

w:hRule="exact" w:val="1985"
w:hRule="exact" w:val="1418"
w:hRule="exact" w:val="1418"
w:hRule="exact" w:val="1985"
w:hRule="exact" w:val="1418"


footer_4 even
10433

Стр. / DOCPROPERTY DecimalNum \* MERGEFORMAT = ПДРА.465684.020 DOCPROPERTY DocTypeShort \* MERGEFORMAT = РЭ / Изм. / Лист / № докум. / Подп. / Дата

<w:tblGrid>
<w:tcW w:w="563" w:type="dxa"/>
<w:tcW w:w="6187" w:type="dxa"/>
<w:tcW w:w="510" w:type="dxa"/>
<w:tcW w:w="566" w:type="dxa"/>
<w:tcW w:w="1299" w:type="dxa"/>
<w:tcW w:w="849" w:type="dxa"/>
<w:tcW w:w="566" w:type="dxa"/>

<w:tcW w:w="563" w:type="dxa"/>
<w:tcW w:w="6187" w:type="dxa"/>
<w:tcW w:w="510" w:type="dxa"/>
<w:tcW w:w="566" w:type="dxa"/>
<w:tcW w:w="1299" w:type="dxa"/>
<w:tcW w:w="849" w:type="dxa"/>
<w:tcW w:w="566" w:type="dxa"/>

<w:tcW w:w="563" w:type="dxa"/>
<w:tcW w:w="6187" w:type="dxa"/>
<w:tcW w:w="510" w:type="dxa"/>
<w:tcW w:w="566" w:type="dxa"/>
<w:tcW w:w="1299" w:type="dxa"/>
<w:tcW w:w="849" w:type="dxa"/>
<w:tcW w:w="566" w:type="dxa"/>
</w:tblGrid>

<w:trHeight w:hRule="exact" w:val="284"/>


footer_5 default
"0"
Подпись и дата / Инв. № дубл / Взам. инв. № / Подпись и дата / Инв. № подл.

<w:tblGrid>
  <w:gridCol w:w="284"/>
  <w:gridCol w:w="397"/>
</w:tblGrid>

w:hRule="exact" w:val="1985"
w:hRule="exact" w:val="1418"
w:hRule="exact" w:val="1418"
w:hRule="exact" w:val="1985"
w:hRule="exact" w:val="1418"


10490

<w:tblGrid>
  <w:gridCol w:w="1497"/>
  <w:gridCol w:w="1498"/>
  <w:gridCol w:w="1499"/>
  <w:gridCol w:w="1499"/>
  <w:gridCol w:w="1499"/>
  <w:gridCol w:w="1499"/>
  <w:gridCol w:w="1499"/>
</w:tblGrid>

w:hRule="exact" w:val="284"


footer_6 first
Подпись и дата / DOCPROPERTY DecimalNum \* MERGEFORMAT = ПДРА.465684.020 / Справ. №
0

<w:tblGrid>
  <w:gridCol w:w="284"/>
  <w:gridCol w:w="397"/>
</w:tblGrid>

<w:trHeight w:hRule="exact" w:val="3402"/>

0
Подпись и дата / Инв. № дубл / Взам. инв. № / Подпись и дата / Инв. № подл. 

<w:tblGrid>
  <w:gridCol w:w="284"/>
  <w:gridCol w:w="397"/>
</w:tblGrid>

w:hRule="exact" w:val="1985"
w:hRule="exact" w:val="1418"
w:hRule="exact" w:val="1418"
w:hRule="exact" w:val="1985"
w:hRule="exact" w:val="1418"

10433
Стр. / DOCPROPERTY DecimalNum \* MERGEFORMAT = ПДРА.465684.020 DOCPROPERTY DocTypeShort \* MERGEFORMAT = РЭ / Изм. / Лист / № докум. / Подп. / Дата / Разраб. / DOCPROPERTY  ProjectName  \* MERGEFORMAT +  DOCPROPERTY  ShortName  \* MERGEFORMAT + DOCPROPERTY  DocType  \* MERGEFORMAT / Лит. / Листов / Пров. / М. экспертиза / Н. контр. / Утв.

<w:tblGrid>
  <w:gridCol w:w="498"/>
  <w:gridCol w:w="807"/>
  <w:gridCol w:w="1342"/>
  <w:gridCol w:w="998"/>
  <w:gridCol w:w="674"/>
  <w:gridCol w:w="818"/>
  <w:gridCol w:w="2801"/>
  <w:gridCol w:w="2554"/>
  
  <w:gridCol w:w="498"/>
  <w:gridCol w:w="807"/>
  <w:gridCol w:w="1342"/>
  <w:gridCol w:w="998"/>
  <w:gridCol w:w="674"/>
  <w:gridCol w:w="818"/>
  <w:gridCol w:w="2801"/>
  <w:gridCol w:w="2554"/>

  <w:gridCol w:w="498"/>
  <w:gridCol w:w="807"/>
  <w:gridCol w:w="1342"/>
  <w:gridCol w:w="998"/>
  <w:gridCol w:w="674"/>
  <w:gridCol w:w="6173"/>

  <w:gridCol w:w="498"/>
  <w:gridCol w:w="807"/>
  <w:gridCol w:w="1342"/>
  <w:gridCol w:w="998"/>
  <w:gridCol w:w="674"/>
  <w:gridCol w:w="6173"/>

  <w:gridCol w:w="498"/>
  <w:gridCol w:w="807"/>
  <w:gridCol w:w="1342"/>
  <w:gridCol w:w="998"/>
  <w:gridCol w:w="674"/>
  <w:gridCol w:w="6173"/>

  <w:gridCol w:w="1305"/>
  <w:gridCol w:w="1342"/>
  <w:gridCol w:w="998"/>
  <w:gridCol w:w="674"/>
  <w:gridCol w:w="3619"/>
  <w:gridCol w:w="851"/>
  <w:gridCol w:w="852"/>
  
  <w:gridCol w:w="1305"/>
  <w:gridCol w:w="1342"/>
  <w:gridCol w:w="998"/>
  <w:gridCol w:w="674"/>
  <w:gridCol w:w="3619"/>
  <w:gridCol w:w="283"/>
  <w:gridCol w:w="284"/>
  <w:gridCol w:w="284"/>
  <w:gridCol w:w="851"/>
  <w:gridCol w:w="852"/>
  
  <w:gridCol w:w="1305"/>
  <w:gridCol w:w="1342"/>
  <w:gridCol w:w="998"/>
  <w:gridCol w:w="674"/>
  <w:gridCol w:w="3619"/>
  <w:gridCol w:w="2554"/>

  <w:gridCol w:w="1305"/>
  <w:gridCol w:w="1342"/>
  <w:gridCol w:w="998"/>
  <w:gridCol w:w="674"/>
  <w:gridCol w:w="3619"/>
  <w:gridCol w:w="2554"/>

  <w:gridCol w:w="1305"/>
  <w:gridCol w:w="1342"/>
  <w:gridCol w:w="998"/>
  <w:gridCol w:w="674"/>
  <w:gridCol w:w="3619"/>
  <w:gridCol w:w="2554"/>
</w:tblGrid>

<w:trHeight w:hRule="exact" w:val="794"/>
<w:trHeight w:hRule="exact" w:val="454"/>
<w:trHeight w:hRule="exact" w:val="284"/>
<w:trHeight w:hRule="exact" w:val="284"/>
<w:trHeight w:hRule="exact" w:val="284"/>
<w:trHeight w:hRule="exact" w:val="284"/>
<w:trHeight w:hRule="exact" w:val="284"/>
<w:trHeight w:hRule="exact" w:val="284"/>
<w:trHeight w:hRule="exact" w:val="284"/>
<w:trHeight w:hRule="exact" w:val="284"/>

footer_7 even
10433
Стр. / DOCPROPERTY DecimalNum \* MERGEFORMAT = ПДРА.465684.020 DOCPROPERTY DocTypeShort \* MERGEFORMAT = РЭ / PAGE \* MERGEFORMAT / Изм. / Лист / № докум. / Подп. / Дата

<w:tcW w:w="563" w:type="dxa"/>
<w:tcW w:w="6187" w:type="dxa"/>
<w:tcW w:w="510" w:type="dxa"/>
<w:tcW w:w="566" w:type="dxa"/>
<w:tcW w:w="1299" w:type="dxa"/>
<w:tcW w:w="849" w:type="dxa"/>
<w:tcW w:w="566" w:type="dxa"/>

footer_8 default
0
Подпись и дата / Инв. № дубл. / Взам. инв. № / Подпись и дата / Инв. № подл. 

<w:tblGrid>
    <w:gridCol w:w="284"/>
    <w:gridCol w:w="397"/>
</w:tblGrid>


w:hRule="exact" w:val="1985"
w:hRule="exact" w:val="1418"
w:hRule="exact" w:val="1418"
w:hRule="exact" w:val="1985"
w:hRule="exact" w:val="1418"


0
Стр. / DOCPROPERTY DecimalNum \* MERGEFORMAT = ПДРА.465684.020 DOCPROPERTY DocTypeShort \* MERGEFORMAT = РЭ / PAGE \* MERGEFORMAT / Изм. / Лист / № докум. / Подп. / Дата

<w:tblGrid>
    <w:gridCol w:w="509"/>
    <w:gridCol w:w="563"/>
    <w:gridCol w:w="1273"/>
    <w:gridCol w:w="838"/>
    <w:gridCol w:w="649"/>
    <w:gridCol w:w="6029"/>
    <w:gridCol w:w="572"/>
</w:tblGrid>

<w:trHeight w:hRule="exact" w:val="284"/>

footer_9 first
10433
Стр. / DOCPROPERTY DecimalNum \* MERGEFORMAT = ПДРА.465684.020 DOCPROPERTY DocTypeShort \* MERGEFORMAT = РЭ / PAGE \* MERGEFORMAT / Изм. / Лист / № докум. / Подп. / Дата

<w:tblGrid>
    <w:gridCol w:w="509"/>
    <w:gridCol w:w="563"/>
    <w:gridCol w:w="1273"/>
    <w:gridCol w:w="838"/>
    <w:gridCol w:w="649"/>
    <w:gridCol w:w="6029"/>
    <w:gridCol w:w="572"/>
</w:tblGrid>

<w:trHeight w:hRule="exact" w:val="284"/>


header_6 first
0
"Подпись и дата", "Инв. № дубл.", "Взам. инв. №", "Подпись и дата", "Инв. № подл."

<w:tblGrid>
    <w:gridCol w:w="284"/>
    <w:gridCol w:w="397"/>
</w:tblGrid>

w:hRule="exact" w:val="1985"
w:hRule="exact" w:val="1418"
w:hRule="exact" w:val="1418"
w:hRule="exact" w:val="1985"
w:hRule="exact" w:val="1418"

