{
  "bochkova": [
    {
      "cell": "DJ",
      "date": "2022-04-15",
      "cause": "vacation"
    },
    {
      "cell": "FP",
      "date": "2022-06-10",
      "cause": "vacation"
    }
  ],
  "brovko": [
    {
      "cell": "AK",
      "date": "2022-01-31",
      "cause": "sick"
    },
    {
      "cell": "AM",
      "date": "2022-02-01",
      "cause": "sick"
    },
    {
      "cell": "DH",
      "date": "2022-04-13",
      "cause": "vacation"
    },
    {
      "cell": "GO",
      "date": "2022-07-04",
      "cause": "vacation"
    },
    {
      "cell": "GR",
      "date": "2022-07-07",
      "cause": "vacation"
    },
    {
      "cell": "GS",
      "date": "2022-07-08",
      "cause": "vacation"
    },
    {
      "cell": "GV",
      "date": "2022-07-11",
      "cause": "vacation"
    },
    {
      "cell": "GW",
      "date": "2022-07-12",
      "cause": "vacation"
    },
    {
      "cell": "GX",
      "date": "2022-07-13",
      "cause": "vacation"
    },
    {
      "cell": "GY",
      "date": "2022-07-14",
      "cause": "vacation"
    },
    {
      "cell": "GZ",
      "date": "2022-07-15",
      "cause": "vacation"
    },
    {
      "cell": "HC",
      "date": "2022-07-18",
      "cause": "vacation"
    },
    {
      "cell": "HD",
      "date": "2022-07-19",
      "cause": "vacation"
    },
    {
      "cell": "HE",
      "date": "2022-07-20",
      "cause": "vacation"
    },
    {
      "cell": "HF",
      "date": "2022-07-21",
      "cause": "vacation"
    },
    {
      "cell": "HG",
      "date": "2022-07-22",
      "cause": "vacation"
    },
    {
      "cell": "HJ",
      "date": "2022-07-25",
      "cause": "vacation"
    },
    {
      "cell": "HK",
      "date": "2022-07-26",
      "cause": "vacation"
    },
    {
      "cell": "HL",
      "date": "2022-07-27",
      "cause": "vacation"
    }
  ],
  "burdin": [],
  "fesenko": [
    {
      "cell": "IF",
      "date": "2022-08-15",
      "cause": "vacation"
    },
    {
      "cell": "IG",
      "date": "2022-08-16",
      "cause": "vacation"
    },
    {
      "cell": "IH",
      "date": "2022-08-17",
      "cause": "vacation"
    },
    {
      "cell": "II",
      "date": "2022-08-18",
      "cause": "vacation"
    },
    {
      "cell": "IJ",
      "date": "2022-08-19",
      "cause": "vacation"
    },
    {
      "cell": "IM",
      "date": "2022-08-22",
      "cause": "vacation"
    },
    {
      "cell": "IN",
      "date": "2022-08-23",
      "cause": "vacation"
    },
    {
      "cell": "IO",
      "date": "2022-08-24",
      "cause": "vacation"
    },
    {
      "cell": "IP",
      "date": "2022-08-25",
      "cause": "vacation"
    },
    {
      "cell": "IQ",
      "date": "2022-08-26",
      "cause": "vacation"
    },
    {
      "cell": "IT",
      "date": "2022-08-29",
      "cause": "vacation"
    },
    {
      "cell": "IU",
      "date": "2022-08-30",
      "cause": "vacation"
    },
    {
      "cell": "IV",
      "date": "2022-08-31",
      "cause": "vacation"
    }
  ],
  "kuksina": [
    {
      "cell": "JB",
      "date": "2022-09-05",
      "cause": "vacation"
    },
    {
      "cell": "JC",
      "date": "2022-09-06",
      "cause": "vacation"
    },
    {
      "cell": "JD",
      "date": "2022-09-07",
      "cause": "vacation"
    },
    {
      "cell": "JE",
      "date": "2022-09-08",
      "cause": "vacation"
    },
    {
      "cell": "JF",
      "date": "2022-09-09",
      "cause": "vacation"
    },
    {
      "cell": "JI",
      "date": "2022-09-12",
      "cause": "vacation"
    },
    {
      "cell": "JJ",
      "date": "2022-09-13",
      "cause": "vacation"
    },
    {
      "cell": "JK",
      "date": "2022-09-14",
      "cause": "vacation"
    },
    {
      "cell": "JL",
      "date": "2022-09-15",
      "cause": "vacation"
    },
    {
      "cell": "JM",
      "date": "2022-09-16",
      "cause": "vacation"
    }

  ],
  "lyalina": [
    {
      "cell": "AV",
      "date": "2022-02-10",
      "cause": "vacation"
    },
    {
      "cell": "AW",
      "date": "2022-02-11",
      "cause": "vacation"
    },
    {
      "cell": "AZ",
      "date": "2022-02-14",
      "cause": "vacation"
    },
    {
      "cell": "BA",
      "date": "2022-02-15",
      "cause": "vacation"
    },
    {
      "cell": "BB",
      "date": "2022-02-16",
      "cause": "vacation"
    },
    {
      "cell": "BC",
      "date": "2022-02-17",
      "cause": "vacation"
    },
    {
      "cell": "BD",
      "date": "2022-02-18",
      "cause": "vacation"
    },
    {
      "cell": "BG",
      "date": "2022-02-21",
      "cause": "vacation"
    },
    {
      "cell": "BH",
      "date": "2022-02-22",
      "cause": "vacation"
    },
    {
      "cell": "EL",
      "date": "2022-05-12",
      "cause": "sick"
    },
    {
      "cell": "EM",
      "date": "2022-05-13",
      "cause": "sick"
    },
    {
      "cell": "GV",
      "date": "2022-07-11",
      "cause": "vacation"
    },
    {
      "cell": "GW",
      "date": "2022-07-12",
      "cause": "vacation"
    },
    {
      "cell": "GX",
      "date": "2022-07-13",
      "cause": "vacation"
    },
    {
      "cell": "GY",
      "date": "2022-07-14",
      "cause": "vacation"
    },
    {
      "cell": "GZ",
      "date": "2022-07-15",
      "cause": "vacation"
    },
    {
      "cell": "HC",
      "date": "2022-07-18",
      "cause": "vacation"
    },
    {
      "cell": "HD",
      "date": "2022-07-19",
      "cause": "vacation"
    },
    {
      "cell": "HE",
      "date": "2022-07-20",
      "cause": "vacation"
    },
    {
      "cell": "HF",
      "date": "2022-07-21",
      "cause": "vacation"
    },
    {
      "cell": "HG",
      "date": "2022-07-22",
      "cause": "vacation"
    },
    {
      "cell": "HJ",
      "date": "2022-07-25",
      "cause": "vacation"
    },
    {
      "cell": "HK",
      "date": "2022-07-26",
      "cause": "vacation"
    },
    {
      "cell": "HL",
      "date": "2022-07-27",
      "cause": "vacation"
    },
        {
      "cell": "HM",
      "date": "2022-07-28",
      "cause": "vacation"
    },
    {
      "cell": "HN",
      "date": "2022-07-29",
      "cause": "vacation"
    }
  ],
  "matyushina": [
    {
      "cell": "EZ",
      "date": "2022-05-26",
      "cause": "vacation"
    },
    {
      "cell": "FA",
      "date": "2022-05-27",
      "cause": "vacation"
    },
    {
      "cell": "FD",
      "date": "2022-05-30",
      "cause": "vacation"
    },
    {
      "cell": "GG",
      "date": "2022-06-27",
      "cause": "vacation"
    },
    {
      "cell": "GH",
      "date": "2022-06-28",
      "cause": "vacation"
    },
    {
      "cell": "GI",
      "date": "2022-06-29",
      "cause": "vacation"
    },
    {
      "cell": "GJ",
      "date": "2022-06-30",
      "cause": "vacation"
    },
    {
      "cell": "GL",
      "date": "2022-07-01",
      "cause": "vacation"
    }
  ],
  "mazyarova": [
    {
      "cell": "FE",
      "date": "2022-05-31",
      "cause": "sick"
    },
    {
      "cell": "FG",
      "date": "2022-06-01",
      "cause": "sick"
    },
    {
      "cell": "FH",
      "date": "2022-06-02",
      "cause": "sick"
    },
    {
      "cell": "FI",
      "date": "2022-06-03",
      "cause": "sick"
    },
    {
      "cell": "FL",
      "date": "2022-06-06",
      "cause": "sick"
    },
    {
      "cell": "FM",
      "date": "2022-06-07",
      "cause": "sick"
    },
    {
      "cell": "FN",
      "date": "2022-06-08",
      "cause": "sick"
    },
    {
      "cell": "FO",
      "date": "2022-06-09",
      "cause": "sick"
    },
    {
      "cell": "FP",
      "date": "2022-06-10",
      "cause": "sick"
    }
  ],
  "nigrej": [
    {
      "cell": "AD",
      "date": "2022-01-24",
      "cause": "sick"
    },
    {
      "cell": "AE",
      "date": "2022-01-25",
      "cause": "sick"
    },
    {
      "cell": "AF",
      "date": "2022-01-26",
      "cause": "sick"
    },
    {
      "cell": "AG",
      "date": "2022-01-27",
      "cause": "sick"
    },
    {
      "cell": "AH",
      "date": "2022-01-28",
      "cause": "sick"
    },
    {
      "cell": "AK",
      "date": "2022-01-31",
      "cause": "sick"
    },
    {
      "cell": "AM",
      "date": "2022-02-01",
      "cause": "sick"
    },
    {
      "cell": "AN",
      "date": "2022-02-02",
      "cause": "sick"
    },
    {
      "cell": "AO",
      "date": "2022-02-03",
      "cause": "sick"
    },
    {
      "cell": "AP",
      "date": "2022-02-04",
      "cause": "sick"
    },
    {
      "cell": "AS",
      "date": "2022-02-07",
      "cause": "sick"
    },
    {
      "cell": "AT",
      "date": "2022-02-08",
      "cause": "sick"
    },
    {
      "cell": "AU",
      "date": "2022-02-09",
      "cause": "sick"
    },
    {
      "cell": "FW",
      "date": "2022-06-17",
      "cause": "vacation"
    },
    {
      "cell": "FZ",
      "date": "2022-06-20",
      "cause": "vacation"
    },
    {
      "cell": "GA",
      "date": "2022-06-21",
      "cause": "vacation"
    },
    {
      "cell": "GB",
      "date": "2022-06-22",
      "cause": "vacation"
    },
    {
      "cell": "GC",
      "date": "2022-06-23",
      "cause": "vacation"
    },
    {
      "cell": "GD",
      "date": "2022-06-24",
      "cause": "vacation"
    },
    {
      "cell": "GG",
      "date": "2022-06-27",
      "cause": "vacation"
    },
    {
      "cell": "GH",
      "date": "2022-06-28",
      "cause": "vacation"
    },
    {
      "cell": "GI",
      "date": "2022-06-29",
      "cause": "vacation"
    },
    {
      "cell": "GJ",
      "date": "2022-06-30",
      "cause": "vacation"
    },
    {
      "cell": "GL",
      "date": "2022-07-01",
      "cause": "vacation"
    },
    {
      "cell": "GV",
      "date": "2022-07-11",
      "cause": "vacation"
    },
    {
      "cell": "GW",
      "date": "2022-07-12",
      "cause": "vacation"
    },
    {
      "cell": "GX",
      "date": "2022-07-13",
      "cause": "vacation"
    },
    {
      "cell": "GY",
      "date": "2022-07-14",
      "cause": "vacation"
    },
    {
      "cell": "GZ",
      "date": "2022-07-15",
      "cause": "vacation"
    },
    {
      "cell": "HC",
      "date": "2022-07-18",
      "cause": "vacation"
    },
    {
      "cell": "HD",
      "date": "2022-07-19",
      "cause": "vacation"
    },
    {
      "cell": "HE",
      "date": "2022-07-20",
      "cause": "vacation"
    },
    {
      "cell": "HF",
      "date": "2022-07-21",
      "cause": "vacation"
    },
    {
      "cell": "HG",
      "date": "2022-07-22",
      "cause": "vacation"
    }
  ],
  "vykhodtsev": [
    {
      "cell": "AM",
      "date": "2022-02-01",
      "cause": "vacation"
    },
    {
      "cell": "AN",
      "date": "2022-02-02",
      "cause": "vacation"
    },
    {
      "cell": "AO",
      "date": "2022-02-03",
      "cause": "vacation"
    },
    {
      "cell": "AP",
      "date": "2022-02-04",
      "cause": "vacation"
    },
    {
      "cell": "AS",
      "date": "2022-02-07",
      "cause": "vacation"
    },
    {
      "cell": "AT",
      "date": "2022-02-08",
      "cause": "vacation"
    },
    {
      "cell": "HR",
      "date": "2022-08-01",
      "cause": "vacation"
    },
    {
      "cell": "HS",
      "date": "2022-08-02",
      "cause": "vacation"
    },
    {
      "cell": "HT",
      "date": "2022-08-03",
      "cause": "vacation"
    },
    {
      "cell": "HU",
      "date": "2022-08-04",
      "cause": "vacation"
    },
    {
      "cell": "HV",
      "date": "2022-08-05",
      "cause": "vacation"
    }
  ]
}
